<?xml version="1.0" encoding="utf-8"?>
<!-- Generator: Adobe Illustrator 24.3.0, SVG Export Plug-In . SVG Version: 6.00 Build 0)  -->
<svg version="1.1" id="Camada_1" xmlns="http://www.w3.org/2000/svg" xmlns:xlink="http://www.w3.org/1999/xlink" x="0px" y="0px"
	 width="61.7px" height="300px" viewBox="0 0 61.7 300" style="enable-background:new 0 0 61.7 300;" xml:space="preserve">
<style type="text/css">
	.st0{fill:#FFFFFF;}
</style>
<circle class="st0" cx="7" cy="7" r="7"/>
<circle class="st0" cx="54.7" cy="7" r="7"/>
<circle class="st0" cx="7" cy="54.7" r="7"/>
<circle class="st0" cx="54.7" cy="54.7" r="7"/>
<circle class="st0" cx="7" cy="102.3" r="7"/>
<circle class="st0" cx="54.7" cy="102.3" r="7"/>
<circle class="st0" cx="7" cy="150" r="7"/>
<circle class="st0" cx="54.7" cy="150" r="7"/>
<circle class="st0" cx="7" cy="197.7" r="7"/>
<circle class="st0" cx="54.7" cy="197.7" r="7"/>
<circle class="st0" cx="7" cy="245.3" r="7"/>
<circle class="st0" cx="54.7" cy="245.3" r="7"/>
<circle class="st0" cx="7" cy="293" r="7"/>
<circle class="st0" cx="54.7" cy="293" r="7"/>
</svg>
