<?xml version="1.0" encoding="utf-8"?>
<!-- Generator: Adobe Illustrator 24.3.0, SVG Export Plug-In . SVG Version: 6.00 Build 0)  -->
<svg version="1.1" id="Camada_1" xmlns="http://www.w3.org/2000/svg" xmlns:xlink="http://www.w3.org/1999/xlink" x="0px" y="0px"
	 width="300px" height="300px" viewBox="0 0 300 300" style="enable-background:new 0 0 300 300;" xml:space="preserve">
<style type="text/css">
	.st0{opacity:3.000000e-02;fill:#10D2CF;}
</style>
<path class="st0" d="M258.1,300H41.9C18.8,300,0,281.2,0,258.1V41.9C0,18.8,18.8,0,41.9,0h216.1C281.2,0,300,18.8,300,41.9v216.1
	C300,281.2,281.2,300,258.1,300z"/>
</svg>
