<?xml version="1.0" encoding="utf-8"?>
<!-- Generator: Adobe Illustrator 24.3.0, SVG Export Plug-In . SVG Version: 6.00 Build 0)  -->
<svg version="1.1" id="Camada_1" xmlns="http://www.w3.org/2000/svg" xmlns:xlink="http://www.w3.org/1999/xlink" x="0px" y="0px"
	 width="300px" height="83.6px" viewBox="0 0 300 83.6" style="enable-background:new 0 0 300 83.6;" xml:space="preserve">
<style type="text/css">
	.st0{fill:#10D2CF;}
</style>
<path class="st0" d="M235.9,70.1V41.8V13.5l48.6,28.3L235.9,70.1 M228.1,83.6L300,41.8L228.1,0v41.8V83.6L228.1,83.6z"/>
<path class="st0" d="M121.9,70.1V41.8V13.5l48.6,28.3L121.9,70.1 M114.1,83.6l71.9-41.8L114.1,0v41.8V83.6L114.1,83.6z"/>
<path class="st0" d="M7.8,70.1V41.8V13.5l48.6,28.3L7.8,70.1 M0,83.6l71.9-41.8L0,0v41.8V83.6L0,83.6z"/>
</svg>
